---
http_interactions:
- request:
    method: get
    uri: http://api.corpwatch.org/companies.json?company_name=John+Smith
    body:
      encoding: US-ASCII
      string: ''
    headers:
      User-Agent:
      - Faraday v0.9.2
  response:
    status:
      code: 200
      message: 
    headers:
      server:
      - nginx/1.8.0
      date:
      - Mon, 11 Jan 2016 02:08:04 GMT
      content-type:
      - application/json
      content-length:
      - '1034'
      connection:
      - close
      x-powered-by:
      - PHP/5.5.30
    body:
      encoding: UTF-8
      string: |
        {"meta":{"success":1,"status":200,"status_string":"Success","total_results":"2","results_complete":1,"api_version":"0.04 (2015-12-14)","parameters":{"company_name":"John Smith","limit":100,"index":0,"year":"most_recent"}},"result":{"companies":{"cw_46942":{"cw_id":"cw_46942","cik":"1378379","company_name":"Clark John Smith II","irs_number":null,"sic_code":null,"industry_name":null,"sic_sector":null,"sector_name":null,"source_type":"filers","raw_address":"1114 AVENUE OF THE AMERICAS, 22ND FLOOR, NEW YORK NY 10036","country_code":"US","subdiv_code":"NY","top_parent_id":"cw_46942","num_parents":"0","num_children":"0","max_year":"2015","min_year":"2006"},"cw_491186":{"cw_id":"cw_491186","cik":"0","company_name":"John Smith Landfill Inc","irs_number":null,"sic_code":null,"industry_name":null,"sic_sector":null,"sector_name":null,"source_type":"relationships","raw_address":"California","country_code":"US","subdiv_code":"CA","top_parent_id":"cw_5997","num_parents":"1","num_children":"0","max_year":"2003","min_year":"2003"}}}}
    http_version: 
  recorded_at: Mon, 11 Jan 2016 02:08:04 GMT
- request:
    method: get
    uri: https://api.opencorporates.com/companies/search?order=score&q=John+Smith
    body:
      encoding: US-ASCII
      string: ''
    headers:
      User-Agent:
      - Faraday v0.9.2
  response:
    status:
      code: 200
      message: 
    headers:
      content-type:
      - application/json;charset=utf-8
      transfer-encoding:
      - chunked
      connection:
      - close
      status:
      - 200 OK
      x-content-type-options:
      - nosniff
      date:
      - Mon, 11 Jan 2016 02:08:05 GMT
      x-powered-by:
      - Phusion Passenger 5.0.20
      server:
      - nginx/1.8.0 + Phusion Passenger 5.0.20
      access-control-allow-origin:
      - 'null'
      access-control-allow-credentials:
      - 'true'
      access-control-allow-methods:
      - GET
      access-control-allow-headers:
      - DNT,X-Mx-ReqToken,Keep-Alive,User-Agent,X-Requested-With,If-Modified-Since,Cache-Control,Content-Type
    body:
      encoding: ASCII-8BIT
      string: '{"api_version":"0.4.1","results":{"companies":[{"company":{"name":"JOHN
        SMITH","company_number":"2260987567","jurisdiction_code":"ca_qc","incorporation_date":"2002-08-22","dissolution_date":null,"company_type":"Entreprise
        individuelle","registry_url":null,"branch_status":null,"inactive":true,"current_status":"Radi\u00e9e
        D''office Suite \u00e0 La Non Production De Deux D\u00e9clarations De Mise
        \u00e0 Jour Annuelles Cons\u00e9cutives","created_at":"2012-10-15T06:49:31+00:00","updated_at":"2015-10-12T20:35:09+00:00","retrieved_at":"2015-10-08T03:33:50+00:00","opencorporates_url":"https://opencorporates.com/companies/ca_qc/2260987567","previous_names":[],"source":{"publisher":"Quebec
        Registraire des entreprises","url":"http://www.registreentreprises.gouv.qc.ca","retrieved_at":"2015-10-08T03:33:50+00:00"},"registered_address_in_full":"3250,
        HAIG KIRKLAND                            QC H9H1V8"}},{"company":{"name":"JOHN
        SMITH","company_number":"2263430334","jurisdiction_code":"ca_qc","incorporation_date":"2006-01-09","dissolution_date":null,"company_type":"Entreprise
        individuelle","registry_url":null,"branch_status":null,"inactive":false,"current_status":"Immatricul\u00e9e","created_at":"2012-10-15T12:56:14+00:00","updated_at":"2015-10-25T23:23:48+00:00","retrieved_at":"2015-10-23T04:10:30+00:00","opencorporates_url":"https://opencorporates.com/companies/ca_qc/2263430334","previous_names":[],"source":{"publisher":"Quebec
        Registraire des entreprises","url":"http://www.registreentreprises.gouv.qc.ca","retrieved_at":"2015-10-23T04:10:30+00:00"},"registered_address_in_full":"705,
        24E AVENUE, APP. 6 MONTR\u00c9AL (QU\u00c9BEC) H8S3W4"}},{"company":{"name":"JOHN
        B. SMITH, P.S.C.","company_number":"0225893","jurisdiction_code":"us_ky","incorporation_date":"1987-02-20","dissolution_date":null,"company_type":"Kentucky
        Professional Services Corp","registry_url":"https://app.sos.ky.gov/ftshow/(S(1mwjwruhcdaiihbdnrvmhmqo))/default.aspx?path=ftsearch&id=0225893&ct=09&cs=99999","branch_status":null,"inactive":true,"current_status":"I   Inactive","created_at":"2015-06-20T01:38:55+00:00","updated_at":"2015-06-20T01:38:55+00:00","retrieved_at":"2015-06-18T16:06:05+00:00","opencorporates_url":"https://opencorporates.com/companies/us_ky/0225893","previous_names":[],"source":{"publisher":"Kentucky
        Secretary Of State","url":"https://app.sos.ky.gov/ftshow/(S(1mwjwruhcdaiihbdnrvmhmqo))/default.aspx?path=ftsearch&id=0225893&ct=09&cs=99999","retrieved_at":"2015-06-18T16:06:05+00:00"},"registered_address_in_full":null}},{"company":{"name":"JOHN
        SMITH FOODS LIMITED","company_number":"692041","jurisdiction_code":"nz","incorporation_date":"1995-08-15","dissolution_date":"2012-04-18","company_type":"NZ
        Limited Company","registry_url":"http://www.business.govt.nz/companies/app/ui/pages/companies/692041/detail","branch_status":null,"inactive":true,"current_status":"Struck
        Off","created_at":"2011-06-16T02:53:03+00:00","updated_at":"2015-06-20T09:29:44+00:00","retrieved_at":"2015-06-20T09:29:38+00:00","opencorporates_url":"https://opencorporates.com/companies/nz/692041","previous_names":[],"source":{"publisher":"New
        Zealand Companies Office","url":"http://www.business.govt.nz/companies/app/ui/pages/companies/692041/detail","retrieved_at":"2015-06-20T09:29:38+00:00"},"registered_address_in_full":"C/-deloitte,
        80 Queen Street, Auckland 1010"}},{"company":{"name":"RENDEMENT (JOHN SMITH)
        LIMITED","company_number":"01220593","jurisdiction_code":"gb","incorporation_date":"1975-07-24","dissolution_date":"2002-10-22","company_type":"Private
        Limited Company","registry_url":"http://data.companieshouse.gov.uk/doc/company/01220593","branch_status":null,"inactive":true,"current_status":"Dissolved","created_at":"2011-05-01T11:37:07+00:00","updated_at":"2015-12-22T02:17:39+00:00","retrieved_at":"2011-06-29T16:22:56+00:00","opencorporates_url":"https://opencorporates.com/companies/gb/01220593","previous_names":[],"source":{"publisher":"UK
        Companies House","url":"http://xmlgw.companieshouse.gov.uk/","terms":"UK Crown
        Copyright","retrieved_at":"2011-06-29T16:22:56+00:00"},"registered_address_in_full":"THE
        COMMON, MELBOURNE, DERBYSHIRE, DE73 1DH"}},{"company":{"name":"JOHN SMITH
        BUILDERS LIMITED","company_number":"04726376","jurisdiction_code":"gb","incorporation_date":"2003-04-08","dissolution_date":"2010-10-12","company_type":"Private
        Limited Company","registry_url":"http://data.companieshouse.gov.uk/doc/company/04726376","branch_status":null,"inactive":true,"current_status":"Dissolved","created_at":"2010-10-22T13:54:25+00:00","updated_at":"2015-12-17T00:39:20+00:00","retrieved_at":"2015-04-27T11:57:33+00:00","opencorporates_url":"https://opencorporates.com/companies/gb/04726376","previous_names":[],"source":{"publisher":"UK
        Companies House","url":"http://xmlgw.companieshouse.gov.uk/","terms":"UK Crown
        Copyright","retrieved_at":"2015-04-27T11:57:33+00:00"},"registered_address_in_full":"1
        BELMONT VILLAS, THOMPSON TERRACE, ASKERN, DONCASTER, SOUTH YORKSHIRE, DN6
        0JN"}},{"company":{"name":"John Ryan Smith, LLC","company_number":"20131067043","jurisdiction_code":"us_co","incorporation_date":"2013-01-29","dissolution_date":null,"company_type":"Limited
        Liability Company","registry_url":null,"branch_status":null,"inactive":false,"current_status":"Delinquent","created_at":"2015-09-17T16:23:27+00:00","updated_at":"2015-09-17T16:23:27+00:00","retrieved_at":"2015-09-05T09:01:17+00:00","opencorporates_url":"https://opencorporates.com/companies/us_co/20131067043","previous_names":[],"source":{"publisher":"Oregon
        Secretary of State","url":"http://egov.sos.state.or.us/br/pkg_web_name_srch_inq.login","retrieved_at":"2015-09-05T09:01:17+00:00"},"registered_address_in_full":null}},{"company":{"name":"John
        Smith LLC","company_number":"20141609287","jurisdiction_code":"us_co","incorporation_date":"2014-10-03","dissolution_date":null,"company_type":"Limited
        Liability Company","registry_url":null,"branch_status":null,"inactive":false,"current_status":"Good
        Standing","created_at":"2015-09-18T08:46:52+00:00","updated_at":"2015-09-18T08:46:52+00:00","retrieved_at":"2015-09-05T09:20:04+00:00","opencorporates_url":"https://opencorporates.com/companies/us_co/20141609287","previous_names":[],"source":{"publisher":"Oregon
        Secretary of State","url":"http://egov.sos.state.or.us/br/pkg_web_name_srch_inq.login","retrieved_at":"2015-09-05T09:20:04+00:00"},"registered_address_in_full":null}},{"company":{"name":"JOHN
        SMITH ENTERPRISES, LLC","company_number":"4299637","jurisdiction_code":"us_de","incorporation_date":"2007-02-12","dissolution_date":null,"company_type":"Limited
        Liability Company","registry_url":null,"branch_status":null,"inactive":null,"current_status":null,"created_at":"2015-09-16T04:29:16+00:00","updated_at":"2015-10-16T00:13:54+00:00","retrieved_at":"2015-10-10T22:24:03+00:00","opencorporates_url":"https://opencorporates.com/companies/us_de/4299637","previous_names":[],"source":{"publisher":"Delaware
        Department of State: Division of Corporations","url":"http://www.corp.delaware.gov/","retrieved_at":"2015-10-10T22:24:03+00:00"},"registered_address_in_full":null}},{"company":{"name":"JOHN
        PATRICK SMITH","company_number":"2262822549","jurisdiction_code":"ca_qc","incorporation_date":"2005-03-03","dissolution_date":null,"company_type":"Entreprise
        individuelle","registry_url":null,"branch_status":null,"inactive":true,"current_status":"Radi\u00e9e
        D''office Suite \u00e0 La Non Production De Deux D\u00e9clarations De Mise
        \u00e0 Jour Annuelles Cons\u00e9cutives","created_at":"2012-10-15T11:29:01+00:00","updated_at":"2015-10-25T21:51:51+00:00","retrieved_at":"2015-10-22T11:58:42+00:00","opencorporates_url":"https://opencorporates.com/companies/ca_qc/2262822549","previous_names":[],"source":{"publisher":"Quebec
        Registraire des entreprises","url":"http://www.registreentreprises.gouv.qc.ca","retrieved_at":"2015-10-22T11:58:42+00:00"},"registered_address_in_full":"417,
        PAGANAKOMIN MIKAN BO\u00ceTE POSTALE 472 MANIWAKI                            QC
        J9E3B1"}},{"company":{"name":"JOHN SMITH ETC LIMITED","company_number":"06137134","jurisdiction_code":"gb","incorporation_date":"2007-03-05","dissolution_date":null,"company_type":"Private
        Limited Company","registry_url":"http://data.companieshouse.gov.uk/doc/company/06137134","branch_status":null,"inactive":false,"current_status":"Active   Proposal
        To Strike Off","created_at":"2010-10-22T13:54:26+00:00","updated_at":"2015-12-17T19:33:01+00:00","retrieved_at":"2015-09-07T14:09:34+00:00","opencorporates_url":"https://opencorporates.com/companies/gb/06137134","previous_names":[],"source":{"publisher":"UK
        Companies House","url":"http://xmlgw.companieshouse.gov.uk/","terms":"UK Crown
        Copyright","retrieved_at":"2015-09-07T14:09:34+00:00"},"registered_address_in_full":"SANDERSON
        HOUSE, STATION ROAD, HORSFORTH, LEEDS, LS18 5NT"}},{"company":{"name":"JOHN
        SMITH PTY LIMITED","company_number":"086994167","jurisdiction_code":"au","incorporation_date":"1999-04-06","dissolution_date":null,"company_type":"Australian
        Proprietary Company, Limited by Shares","registry_url":"https://connectonline.asic.gov.au/RegistrySearch/faces/landing/panelSearch.jspx?searchTab=search&searchType=OrgAndBusNm&searchText=086994167&_adf.ctrl-state=13cs8h575n_4","branch_status":null,"inactive":false,"current_status":"Registered","created_at":"2014-10-18T12:50:07+00:00","updated_at":"2015-12-17T11:43:40+00:00","retrieved_at":"2015-12-03T12:26:00+00:00","opencorporates_url":"https://opencorporates.com/companies/au/086994167","previous_names":[],"source":{"publisher":"Australian
        Securities & Investments Commission","url":"https://connectonline.asic.gov.au/RegistrySearch/faces/landing/panelSearch.jspx?searchTab=search&searchType=OrgAndBusNm&searchText=086994167&_adf.ctrl-state=13cs8h575n_4","retrieved_at":"2015-12-03T12:26:00+00:00"},"registered_address_in_full":null}},{"company":{"name":"JOHN
        H. SMITH, INC.","company_number":"A303112","jurisdiction_code":"us_ga","incorporation_date":"1963-09-11","dissolution_date":null,"company_type":"Domestic
        Profit Corporation","registry_url":"https://ecorp.sos.ga.gov/BusinessSearch/BusinessInformation?businessId=458411&businessType=","branch_status":null,"inactive":false,"current_status":"Active/Compliance","created_at":"2011-10-01T02:28:58+00:00","updated_at":"2015-12-05T17:05:29+00:00","retrieved_at":"2015-11-16T16:13:29+00:00","opencorporates_url":"https://opencorporates.com/companies/us_ga/A303112","previous_names":[],"source":{"publisher":"Georgia
        Secretary of State","url":"https://ecorp.sos.ga.gov/BusinessSearch/BusinessInformation?businessId=458411&businessType=","retrieved_at":"2015-11-16T16:13:29+00:00"},"registered_address_in_full":"1215
        HIGHTOWER TRAIL, #B100, ATLANTA, GA, 30315"}},{"company":{"name":"JOHN E.
        SMITH, INC.","company_number":"1299165","jurisdiction_code":"us_oh","incorporation_date":"2002-02-15","dissolution_date":null,"company_type":"CORPORATION
        FOR PROFIT","registry_url":"http://www2.sos.state.oh.us/pls/bsqry/f?p=100:7:281502142893::NO:7:P7_CHARTER_NUM:1299165","branch_status":null,"inactive":true,"current_status":"Cancelled","created_at":"2011-08-24T04:55:26+00:00","updated_at":"2015-12-04T20:14:46+00:00","retrieved_at":"2015-11-22T13:13:14+00:00","opencorporates_url":"https://opencorporates.com/companies/us_oh/1299165","previous_names":[],"source":{"publisher":"Ohio
        Secretary of State","url":"http://www2.sos.state.oh.us/pls/bsqry/f?p=100:7:281502142893::NO:7:P7_CHARTER_NUM:1299165","retrieved_at":"2015-11-22T13:13:14+00:00"},"registered_address_in_full":"FRANKLIN,
        PORTAGE"}},{"company":{"name":"JOHN SMITH CONSTRUCTION, INC.","company_number":"09005582","jurisdiction_code":"us_ga","incorporation_date":"2009-01-23","dissolution_date":"2011-08-28","company_type":"Domestic
        Profit Corporation","registry_url":"https://ecorp.sos.ga.gov/BusinessSearch/BusinessInformation?businessId=1417476&businessType=","branch_status":null,"inactive":true,"current_status":"Admin.
        Dissolved","created_at":"2011-10-01T21:01:02+00:00","updated_at":"2015-12-11T18:01:39+00:00","retrieved_at":"2015-11-16T18:54:54+00:00","opencorporates_url":"https://opencorporates.com/companies/us_ga/09005582","previous_names":[],"source":{"publisher":"Georgia
        Secretary of State","url":"https://ecorp.sos.ga.gov/BusinessSearch/BusinessInformation?businessId=1417476&businessType=","retrieved_at":"2015-11-16T18:54:54+00:00"},"registered_address_in_full":"1252
        Daniel Lane, Lawrenceville, GA, 30045, USA"}},{"company":{"name":"JOHN SMITH
        HAULAGE LTD","company_number":"05776011","jurisdiction_code":"gb","incorporation_date":"2006-04-10","dissolution_date":null,"company_type":"Private
        Limited Company","registry_url":"http://data.companieshouse.gov.uk/doc/company/05776011","branch_status":null,"inactive":false,"current_status":"Active","created_at":"2010-10-22T13:56:09+00:00","updated_at":"2015-12-22T07:59:19+00:00","retrieved_at":"2015-12-22T07:59:15+00:00","opencorporates_url":"https://opencorporates.com/companies/gb/05776011","previous_names":[{"company_name":"JOHN
        W SMITH LTD","start_date":"2006-04-10","end_date":"2010-11-15"}],"source":{"publisher":"UK
        Companies House","url":"http://xmlgw.companieshouse.gov.uk/","terms":"UK Crown
        Copyright","retrieved_at":"2015-12-22T07:59:15+00:00"},"registered_address_in_full":"Heath
        Road\nWarboys, Cambridgeshire, PE28 2UU"}},{"company":{"name":"TONY JOHN SMITH","company_number":"981756576","jurisdiction_code":"no","incorporation_date":"2000-04-12","dissolution_date":null,"company_type":"Enkeltmannsforetak","registry_url":"http://w2.brreg.no/enhet/sok/detalj.jsp?orgnr=981756576","branch_status":null,"inactive":null,"current_status":null,"created_at":"2015-07-31T12:11:59+00:00","updated_at":"2016-01-06T22:14:02+00:00","retrieved_at":"2016-01-05T15:52:24+00:00","opencorporates_url":"https://opencorporates.com/companies/no/981756576","previous_names":[],"source":{"publisher":"Br\u00f8nn\u00f8ysundregistrene","terms":"Norwegian
        Open Data Licence (NDOL)","terms_url":"http://data.norge.no/nlod/no/1.0","url":"http://data.brreg.no/","retrieved_at":"2016-01-05T15:52:24+00:00"},"registered_address_in_full":"Klypevegen
        11, HAUGESUND, 5517"}},{"company":{"name":"JOHN W. SMITH BOOKS","company_number":"115874","jurisdiction_code":"ca_pe","incorporation_date":"1986-08-25","dissolution_date":null,"company_type":null,"registry_url":"http://www.gov.pe.ca/corporations/index.php?txtSearchType=2&txtRegNum=115874&REF=115874&action=Search","branch_status":null,"inactive":null,"current_status":null,"created_at":"2015-06-26T16:47:37+00:00","updated_at":"2016-01-06T03:51:13+00:00","retrieved_at":"2016-01-06T01:17:59+00:00","opencorporates_url":"https://opencorporates.com/companies/ca_pe/115874","previous_names":[],"source":{"publisher":"Prince
        Edward Island Corporate/Business Names Registry","url":"http://www.gov.pe.ca/corporations/index.php","retrieved_at":"2016-01-06T01:17:59+00:00"},"registered_address_in_full":null}},{"company":{"name":"John
        Smith B.V.","company_number":"62132490","jurisdiction_code":"nl","incorporation_date":null,"dissolution_date":null,"company_type":"Besloten
        Vennootschap","registry_url":"https://server.db.kvk.nl/TST-BIN/FU/TSWS001@?BUTT=62132490","branch_status":null,"inactive":null,"current_status":null,"created_at":"2015-05-07T16:17:26+00:00","updated_at":"2015-05-10T16:11:43+00:00","retrieved_at":"2015-05-10T16:11:43+00:00","opencorporates_url":"https://opencorporates.com/companies/nl/62132490","previous_names":[],"source":{"publisher":"OpenKVK.nl","url":"https://openkvk.nl/kvk/62132490","retrieved_at":"2015-05-10T16:11:43+00:00"},"registered_address_in_full":null}},{"company":{"name":"JOHN
        SMITH CANVASSING LIMITED","company_number":"01938913","jurisdiction_code":"gb","incorporation_date":null,"dissolution_date":null,"company_type":null,"registry_url":"http://data.companieshouse.gov.uk/doc/company/01938913","branch_status":null,"inactive":true,"current_status":"Dissolved","created_at":"2011-04-28T23:12:31+00:00","updated_at":"2015-12-13T22:18:07+00:00","retrieved_at":null,"opencorporates_url":"https://opencorporates.com/companies/gb/01938913","previous_names":[],"source":{"publisher":"UK
        Companies House","url":"http://xmlgw.companieshouse.gov.uk/","terms":"UK Crown
        Copyright","retrieved_at":null},"registered_address_in_full":null}},{"company":{"name":"JOHN
        SMITH (JEWELLERS) LIMITED","company_number":"01625088","jurisdiction_code":"gb","incorporation_date":null,"dissolution_date":null,"company_type":null,"registry_url":"http://data.companieshouse.gov.uk/doc/company/01625088","branch_status":null,"inactive":true,"current_status":"Dissolved","created_at":"2011-04-28T23:12:32+00:00","updated_at":"2013-04-25T15:08:21+00:00","retrieved_at":null,"opencorporates_url":"https://opencorporates.com/companies/gb/01625088","previous_names":[],"source":{"publisher":"UK
        Companies House","url":"http://xmlgw.companieshouse.gov.uk/","terms":"UK Crown
        Copyright","retrieved_at":null},"registered_address_in_full":null}},{"company":{"name":"JOHN
        SMITH DESIGN, INC.","company_number":"00282530","jurisdiction_code":"us_mo","incorporation_date":"1985-11-15","dissolution_date":null,"company_type":"Gen.
        Business - For Profit","registry_url":"https://bsd.sos.mo.gov/BusinessEntity/BusinessEntityDetail.aspx?page=beSearch&ID=253986","branch_status":null,"inactive":false,"current_status":"Forfeited","created_at":"2011-04-30T13:53:20+00:00","updated_at":"2015-07-23T02:56:09+00:00","retrieved_at":"2015-07-12T22:25:07+00:00","opencorporates_url":"https://opencorporates.com/companies/us_mo/00282530","previous_names":[],"source":{"publisher":"Missouri
        Secretary of State","url":"https://bsd.sos.mo.gov/BusinessEntity/BusinessEntityDetail.aspx?page=beSearch&ID=253986","retrieved_at":"2015-07-12T22:25:07+00:00"},"registered_address_in_full":"22
        NORTH HILLVIEW\nST. PETERS, MO 63376"}},{"company":{"name":"JOHN SMITH REALTY,
        INC.","company_number":"D04278537","jurisdiction_code":"us_md","incorporation_date":"1995-12-04","dissolution_date":null,"company_type":null,"registry_url":"http://sdatcert3.resiusa.org/UCC-Charter/DisplayEntity_b.aspx?EntityID=D04278537&EntityName=JOHN+SMITH+REALTY%2c+INC.++++++++++++++++++++++++++++++++++++&TabNum=1","branch_status":null,"inactive":true,"current_status":"Dissolved","created_at":"2012-03-04T09:56:05+00:00","updated_at":"2015-08-07T21:01:06+00:00","retrieved_at":"2015-08-07T14:11:53+00:00","opencorporates_url":"https://opencorporates.com/companies/us_md/D04278537","previous_names":[],"source":{"publisher":"Maryland
        Department of Assessments & Taxation","url":"http://sdatcert3.resiusa.org/UCC-Charter/DisplayEntity_b.aspx?EntityID=D04278537&EntityName=JOHN+SMITH+REALTY%2c+INC.++++++++++++++++++++++++++++++++++++&TabNum=1","retrieved_at":"2015-08-07T14:11:53+00:00"},"registered_address_in_full":"1630CASTLETON
        ROAD\nDARLINGTON, MD 21034"}},{"company":{"name":"JOHN SMITH CORPORATION","company_number":"C2104438","jurisdiction_code":"us_ca","incorporation_date":"1998-04-02","dissolution_date":null,"company_type":"Domestic
        Stock","registry_url":"https://businessfilings.sos.ca.gov/frmDetail.asp?CorpID=02104438","branch_status":null,"inactive":true,"current_status":"Merged
        Out","created_at":"2011-09-20T18:05:51+00:00","updated_at":"2015-11-20T23:09:30+00:00","retrieved_at":"2015-10-27T06:10:34+00:00","opencorporates_url":"https://opencorporates.com/companies/us_ca/C2104438","previous_names":[],"source":{"publisher":"California
        Secretary of State","url":"http://kepler.sos.ca.gov/","retrieved_at":"2015-10-27T06:10:34+00:00"},"registered_address_in_full":"2049
        CENTURY PARK EAST STE 2800,\nLOS ANGELES, CA 90065"}},{"company":{"name":"SMITH
        ST. JOHN, INC.","company_number":"2577583","jurisdiction_code":"us_ks","incorporation_date":"1998-02-13","dissolution_date":null,"company_type":"FOREIGN
        FOR PROFIT","registry_url":null,"branch_status":"branch of an out-of-jurisdiction
        company","inactive":true,"current_status":"Withdrawn","created_at":"2014-06-19T13:32:16+00:00","updated_at":"2015-11-30T06:43:00+00:00","retrieved_at":"2015-11-30T04:49:21+00:00","opencorporates_url":"https://opencorporates.com/companies/us_ks/2577583","previous_names":[{"company_name":"SSJ
        ACQUISITION, INC."}],"source":{"publisher":"Kansas Business Center","url":"http://www.kansas.gov/businesscenter/","retrieved_at":"2015-11-30T04:49:21+00:00"},"registered_address_in_full":"DIR/CORP.
        TAX DEPT - - 1222 OZARK, NORTH KANSAS CITY, MO 64116"}},{"company":{"name":"JOHN
        DAVID SMITH","company_number":"2240717183","jurisdiction_code":"ca_qc","incorporation_date":"1994-07-05","dissolution_date":null,"company_type":"Entreprise
        individuelle","registry_url":null,"branch_status":null,"inactive":false,"current_status":"Immatricul\u00e9e","created_at":"2012-09-28T11:52:33+00:00","updated_at":"2015-10-12T13:54:11+00:00","retrieved_at":"2015-10-10T17:51:16+00:00","opencorporates_url":"https://opencorporates.com/companies/ca_qc/2240717183","previous_names":[],"source":{"publisher":"Quebec
        Registraire des entreprises","url":"http://www.registreentreprises.gouv.qc.ca","retrieved_at":"2015-10-10T17:51:16+00:00"},"registered_address_in_full":"176
        rue Dupont E Ch\u00e2teauguay (Qu\u00e9bec) J6J1H1 Canada"}},{"company":{"name":"JOHN
        SMITH LIMITED","company_number":"101714","jurisdiction_code":"nz","incorporation_date":"1977-09-29","dissolution_date":"1977-09-29","company_type":"NZ
        Limited Company","registry_url":"http://www.business.govt.nz/companies/app/ui/pages/companies/101714/detail","branch_status":null,"inactive":true,"current_status":"Struck
        Off","created_at":"2011-06-16T00:43:10+00:00","updated_at":"2015-11-07T22:41:58+00:00","retrieved_at":"2015-11-07T22:41:53+00:00","opencorporates_url":"https://opencorporates.com/companies/nz/101714","previous_names":[],"source":{"publisher":"New
        Zealand Companies Office","url":"http://www.business.govt.nz/companies/app/ui/pages/companies/101714/detail","retrieved_at":"2015-11-07T22:41:53+00:00"},"registered_address_in_full":"27
        Taylors Road, Morningside, Auckland"}},{"company":{"name":"JOHN P SMITH INC","company_number":"333069","jurisdiction_code":"us_pa","incorporation_date":"1921-01-01","dissolution_date":null,"company_type":"Business
        Corporation - Domestic","registry_url":"https://www.corporations.state.pa.us/corp/soskb/corp.asp?315945","branch_status":null,"inactive":false,"current_status":"Active","created_at":"2011-11-04T16:59:02+00:00","updated_at":"2016-01-01T18:20:24+00:00","retrieved_at":"2015-12-02T10:17:11+00:00","opencorporates_url":"https://opencorporates.com/companies/us_pa/333069","previous_names":[],"source":{"publisher":"Pennsylvania
        Department of State","url":"https://www.corporations.state.pa.us/corp/soskb/corp.asp?315945","retrieved_at":"2015-12-02T10:17:11+00:00"},"registered_address_in_full":"PA\n0
        -0"}},{"company":{"name":"JOHN SMITH SECURITY LTD","company_number":"09162896","jurisdiction_code":"gb","incorporation_date":"2014-08-05","dissolution_date":null,"company_type":"Private
        Limited Company","registry_url":"http://data.companieshouse.gov.uk/doc/company/09162896","branch_status":null,"inactive":false,"current_status":"Active","created_at":"2014-08-05T13:57:39+00:00","updated_at":"2016-01-09T20:44:21+00:00","retrieved_at":"2016-01-09T20:16:23+00:00","opencorporates_url":"https://opencorporates.com/companies/gb/09162896","previous_names":[],"source":{"publisher":"UK
        Companies House","url":"http://xmlgw.companieshouse.gov.uk/","terms":"UK Crown
        Copyright","retrieved_at":"2016-01-09T20:16:23+00:00"},"registered_address_in_full":"243a
        London, Croydon, England, CR0 2RL"}},{"company":{"name":"JOHN F. SMITH LTD.","company_number":"340576","jurisdiction_code":"us_ny","incorporation_date":"1974-04-08","dissolution_date":"1985-08-30","company_type":"DOMESTIC
        BUSINESS CORPORATION","registry_url":"https://appext20.dos.ny.gov/corp_public/CORPSEARCH.ENTITY_INFORMATION?p_nameid=0&p_corpid=340576&p_entity_name=dummy&p_name_type=%25&p_search_type=BEGINS&p_srch_results_page=0","branch_status":null,"inactive":true,"current_status":"Inactive   Dissolution","created_at":"2013-08-31T16:32:46+00:00","updated_at":"2013-08-31T16:32:46+00:00","retrieved_at":null,"opencorporates_url":"https://opencorporates.com/companies/us_ny/340576","previous_names":[],"source":{"publisher":"New
        York Department of State","url":"https://data.ny.gov/Economic-Development/Active-Corporations-Beginning-1800/n9v6-gdp6","retrieved_at":null},"registered_address_in_full":"JOHN
        F. SMITH LTD., 29 E. 61ST ST., NEW YORK, NEW YORK, 10021"}}],"page":1,"per_page":30,"total_pages":21,"total_count":621}}'
    http_version: 
  recorded_at: Mon, 11 Jan 2016 02:08:05 GMT
recorded_with: VCR 3.0.1
