---
http_interactions:
- request:
    method: get
    uri: https://api.opencorporates.com/officers/search?order=score
    body:
      encoding: US-ASCII
      string: ''
    headers:
      User-Agent:
      - Faraday v0.9.2
  response:
    status:
      code: 200
      message: 
    headers:
      content-type:
      - application/json;charset=utf-8
      transfer-encoding:
      - chunked
      connection:
      - close
      status:
      - 200 OK
      x-content-type-options:
      - nosniff
      date:
      - Mon, 11 Jan 2016 02:08:13 GMT
      x-powered-by:
      - Phusion Passenger 5.0.20
      server:
      - nginx/1.8.0 + Phusion Passenger 5.0.20
      access-control-allow-origin:
      - 'null'
      access-control-allow-credentials:
      - 'true'
      access-control-allow-methods:
      - GET
      access-control-allow-headers:
      - DNT,X-Mx-ReqToken,Keep-Alive,User-Agent,X-Requested-With,If-Modified-Since,Cache-Control,Content-Type
    body:
      encoding: ASCII-8BIT
      string: '{"api_version":"0.4.1","results":{"page":1,"per_page":30,"total_pages":4937363,"total_count":148120873,"officers":[{"officer":{"id":102021302,"uid":null,"name":"JOHN
        M. HESSION","jurisdiction_code":"us_ma","position":"secretary","retrieved_at":"2014-09-21T06:34:32+00:00","opencorporates_url":"https://opencorporates.com/officers/102021302","start_date":null,"end_date":null,"occupation":null,"current_status":null,"inactive":null,"company":{"name":"ISC
        ACQUISITION CORP.","jurisdiction_code":"us_ma","company_number":"000514959","opencorporates_url":"https://opencorporates.com/companies/us_ma/000514959"}}},{"officer":{"id":102021221,"uid":null,"name":"JOSEPH
        KHEIRALLAH","jurisdiction_code":"us_ma","position":"treasurer","retrieved_at":"2014-09-21T06:34:17+00:00","opencorporates_url":"https://opencorporates.com/officers/102021221","start_date":null,"end_date":null,"occupation":null,"current_status":null,"inactive":true,"company":{"name":"KATHERINE''S
        CAB, INC.","jurisdiction_code":"us_ma","company_number":"000514849","opencorporates_url":"https://opencorporates.com/companies/us_ma/000514849"}}},{"officer":{"id":102021311,"uid":null,"name":"JOHN
        E. COOTS","jurisdiction_code":"us_ma","position":"president","retrieved_at":"2015-04-26T14:58:02+00:00","opencorporates_url":"https://opencorporates.com/officers/102021311","start_date":null,"end_date":null,"occupation":null,"current_status":null,"inactive":null,"company":{"name":"STONEBRIDGE
        PRESS, INC.","jurisdiction_code":"us_ma","company_number":"000514970","opencorporates_url":"https://opencorporates.com/companies/us_ma/000514970"}}},{"officer":{"id":102021399,"uid":null,"name":"CHESTER
        D. KAHN","jurisdiction_code":"us_ma","position":"president","retrieved_at":"2015-04-26T14:58:04+00:00","opencorporates_url":"https://opencorporates.com/officers/102021399","start_date":null,"end_date":null,"occupation":null,"current_status":null,"inactive":true,"company":{"name":"RE/MAX
        HORIZONS, LTD.","jurisdiction_code":"us_ma","company_number":"000515189","opencorporates_url":"https://opencorporates.com/companies/us_ma/000515189"}}},{"officer":{"id":102021401,"uid":null,"name":"CHESTER
        D. KAHN","jurisdiction_code":"us_ma","position":"secretary","retrieved_at":"2015-04-26T14:58:04+00:00","opencorporates_url":"https://opencorporates.com/officers/102021401","start_date":null,"end_date":null,"occupation":null,"current_status":null,"inactive":true,"company":{"name":"RE/MAX
        HORIZONS, LTD.","jurisdiction_code":"us_ma","company_number":"000515189","opencorporates_url":"https://opencorporates.com/companies/us_ma/000515189"}}},{"officer":{"id":102021410,"uid":null,"name":"JOSEPH
        PETRINGA","jurisdiction_code":"us_ma","position":"secretary","retrieved_at":"2015-04-26T14:58:04+00:00","opencorporates_url":"https://opencorporates.com/officers/102021410","start_date":null,"end_date":null,"occupation":null,"current_status":null,"inactive":true,"company":{"name":"HYDROWREST,
        INC.","jurisdiction_code":"us_ma","company_number":"000515203","opencorporates_url":"https://opencorporates.com/companies/us_ma/000515203"}}},{"officer":{"id":102021489,"uid":null,"name":"TIMOTHY
        KLOTZ","jurisdiction_code":"us_ma","position":"secretary","retrieved_at":"2015-04-26T14:58:06+00:00","opencorporates_url":"https://opencorporates.com/officers/102021489","start_date":null,"end_date":null,"occupation":null,"current_status":null,"inactive":true,"company":{"name":"PHOENIX
        INVESTMENTS, INC.","jurisdiction_code":"us_ma","company_number":"000515350","opencorporates_url":"https://opencorporates.com/companies/us_ma/000515350"}}},{"officer":{"id":102021588,"uid":null,"name":"JIAGENG
        CHEN","jurisdiction_code":"us_ma","position":"secretary","retrieved_at":"2015-04-26T14:58:08+00:00","opencorporates_url":"https://opencorporates.com/officers/102021588","start_date":null,"end_date":null,"occupation":null,"current_status":null,"inactive":true,"company":{"name":"GREENHOPE
        CORPORATION","jurisdiction_code":"us_ma","company_number":"000515555","opencorporates_url":"https://opencorporates.com/companies/us_ma/000515555"}}},{"officer":{"id":102021500,"uid":null,"name":"RICHARD
        HEALEY","jurisdiction_code":"us_ma","position":"treasurer","retrieved_at":"2015-04-26T14:58:06+00:00","opencorporates_url":"https://opencorporates.com/officers/102021500","start_date":null,"end_date":null,"occupation":null,"current_status":null,"inactive":true,"company":{"name":"PROTOCOL
        SCHOOL OF BOSTON, INC., THE","jurisdiction_code":"us_ma","company_number":"000515362","opencorporates_url":"https://opencorporates.com/companies/us_ma/000515362"}}},{"officer":{"id":102021498,"uid":null,"name":"MEGAN
        E. CLEMMEY","jurisdiction_code":"us_ma","position":"secretary","retrieved_at":"2015-04-26T14:58:06+00:00","opencorporates_url":"https://opencorporates.com/officers/102021498","start_date":null,"end_date":null,"occupation":null,"current_status":null,"inactive":true,"company":{"name":"CLEMMEY
        AUTO COMPANY, INC.","jurisdiction_code":"us_ma","company_number":"000515358","opencorporates_url":"https://opencorporates.com/companies/us_ma/000515358"}}},{"officer":{"id":102017439,"uid":null,"name":"ANDREW
        J. BARON","jurisdiction_code":"us_ma","position":"treasurer","retrieved_at":"2015-04-26T14:56:32+00:00","opencorporates_url":"https://opencorporates.com/officers/102017439","start_date":null,"end_date":null,"occupation":null,"current_status":null,"inactive":true,"company":{"name":"A.I.B.
        CORPORATION","jurisdiction_code":"us_ma","company_number":"000507983","opencorporates_url":"https://opencorporates.com/companies/us_ma/000507983"}}},{"officer":{"id":102017457,"uid":null,"name":"PATRICIA
        M. RAPINCHUK","jurisdiction_code":"us_ma","position":"agent","retrieved_at":"2015-04-26T14:56:32+00:00","opencorporates_url":"https://opencorporates.com/officers/102017457","start_date":null,"end_date":null,"occupation":null,"current_status":null,"inactive":true,"company":{"name":"DOUBLE
        A REALTY, INC.","jurisdiction_code":"us_ma","company_number":"000508054","opencorporates_url":"https://opencorporates.com/companies/us_ma/000508054"}}},{"officer":{"id":102017493,"uid":null,"name":"ANNETTE
        A. STEWART","jurisdiction_code":"us_ma","position":"secretary","retrieved_at":"2015-04-26T14:56:33+00:00","opencorporates_url":"https://opencorporates.com/officers/102017493","start_date":null,"end_date":null,"occupation":null,"current_status":null,"inactive":true,"company":{"name":"RADEX
        IMAGING SERVICE INC.","jurisdiction_code":"us_ma","company_number":"000508125","opencorporates_url":"https://opencorporates.com/companies/us_ma/000508125"}}},{"officer":{"id":102017448,"uid":null,"name":"PATRICIA
        E. TOVEY","jurisdiction_code":"us_ma","position":"treasurer","retrieved_at":"2015-04-26T14:56:32+00:00","opencorporates_url":"https://opencorporates.com/officers/102017448","start_date":null,"end_date":null,"occupation":null,"current_status":null,"inactive":true,"company":{"name":"D''AMBRA
        TECHNOLOGIES, INC.","jurisdiction_code":"us_ma","company_number":"000507997","opencorporates_url":"https://opencorporates.com/companies/us_ma/000507997"}}},{"officer":{"id":102017529,"uid":null,"name":"THOMAS
        P. KURZ","jurisdiction_code":"us_ma","position":"secretary","retrieved_at":"2015-04-26T14:56:34+00:00","opencorporates_url":"https://opencorporates.com/officers/102017529","start_date":null,"end_date":null,"occupation":null,"current_status":null,"inactive":null,"company":{"name":"SYGMA
        NETWORK , INC., THE","jurisdiction_code":"us_ma","company_number":"000508183","opencorporates_url":"https://opencorporates.com/companies/us_ma/000508183"}}},{"officer":{"id":102017556,"uid":null,"name":"DOUG
        NORTON","jurisdiction_code":"us_ma","position":"president","retrieved_at":"2015-04-26T14:56:35+00:00","opencorporates_url":"https://opencorporates.com/officers/102017556","start_date":null,"end_date":null,"occupation":null,"current_status":null,"inactive":true,"company":{"name":"NEARTEL,
        INC.","jurisdiction_code":"us_ma","company_number":"000508208","opencorporates_url":"https://opencorporates.com/companies/us_ma/000508208"}}},{"officer":{"id":102017538,"uid":null,"name":"JOEL
        CHARLES","jurisdiction_code":"us_ma","position":"secretary","retrieved_at":"2015-04-26T14:56:34+00:00","opencorporates_url":"https://opencorporates.com/officers/102017538","start_date":null,"end_date":null,"occupation":null,"current_status":null,"inactive":true,"company":{"name":"CHARLES
        CHIROPRACTIC, P.C.","jurisdiction_code":"us_ma","company_number":"000508194","opencorporates_url":"https://opencorporates.com/companies/us_ma/000508194"}}},{"officer":{"id":102017475,"uid":null,"name":"GEORGE
        WORON","jurisdiction_code":"us_ma","position":"agent","retrieved_at":"2015-04-26T14:56:33+00:00","opencorporates_url":"https://opencorporates.com/officers/102017475","start_date":null,"end_date":null,"occupation":null,"current_status":null,"inactive":true,"company":{"name":"ADMINS
        INTERNATIONAL USERS GROUP, INC.","jurisdiction_code":"us_ma","company_number":"000508099","opencorporates_url":"https://opencorporates.com/companies/us_ma/000508099"}}},{"officer":{"id":102017484,"uid":null,"name":"GENO
        R. MIRABELLA","jurisdiction_code":"us_ma","position":"president","retrieved_at":"2015-04-26T14:56:33+00:00","opencorporates_url":"https://opencorporates.com/officers/102017484","start_date":null,"end_date":null,"occupation":null,"current_status":null,"inactive":true,"company":{"name":"ST
        PAUL''S SOCIETY INC.","jurisdiction_code":"us_ma","company_number":"000508114","opencorporates_url":"https://opencorporates.com/companies/us_ma/000508114"}}},{"officer":{"id":102017574,"uid":null,"name":"JOHN
        COPPOLINO","jurisdiction_code":"us_ma","position":"treasurer","retrieved_at":"2015-04-26T14:56:35+00:00","opencorporates_url":"https://opencorporates.com/officers/102017574","start_date":null,"end_date":null,"occupation":null,"current_status":null,"inactive":true,"company":{"name":"SATURN
        INTERNET CORPORATION","jurisdiction_code":"us_ma","company_number":"000508221","opencorporates_url":"https://opencorporates.com/companies/us_ma/000508221"}}},{"officer":{"id":102017592,"uid":null,"name":"RENE
        ROCHON","jurisdiction_code":"us_ma","position":"treasurer","retrieved_at":"2015-04-26T14:56:36+00:00","opencorporates_url":"https://opencorporates.com/officers/102017592","start_date":null,"end_date":null,"occupation":null,"current_status":null,"inactive":true,"company":{"name":"EMOTIONS
        CATERING, INC.","jurisdiction_code":"us_ma","company_number":"000508235","opencorporates_url":"https://opencorporates.com/companies/us_ma/000508235"}}},{"officer":{"id":102017466,"uid":null,"name":"DONALD
        W. SCHMA","jurisdiction_code":"us_ma","position":"president","retrieved_at":"2015-04-26T14:56:32+00:00","opencorporates_url":"https://opencorporates.com/officers/102017466","start_date":null,"end_date":null,"occupation":null,"current_status":null,"inactive":true,"company":{"name":"MENDON,
        INC.","jurisdiction_code":"us_ma","company_number":"000508069","opencorporates_url":"https://opencorporates.com/companies/us_ma/000508069"}}},{"officer":{"id":102017547,"uid":null,"name":"ROBERT
        FINELLI","jurisdiction_code":"us_ma","position":"president","retrieved_at":"2015-04-26T14:56:34+00:00","opencorporates_url":"https://opencorporates.com/officers/102017547","start_date":null,"end_date":null,"occupation":null,"current_status":null,"inactive":null,"company":{"name":"BETHLEHEM
        LUTHERAN CHURCH, INC.","jurisdiction_code":"us_ma","company_number":"000508200","opencorporates_url":"https://opencorporates.com/companies/us_ma/000508200"}}},{"officer":{"id":102017565,"uid":null,"name":"JEFFREY
        M. SNIDER","jurisdiction_code":"us_ma","position":"agent","retrieved_at":"2015-04-26T14:56:35+00:00","opencorporates_url":"https://opencorporates.com/officers/102017565","start_date":null,"end_date":null,"occupation":null,"current_status":null,"inactive":true,"company":{"name":"AIR
        ATLANTIC (1995)LTD.","jurisdiction_code":"us_ma","company_number":"000508215","opencorporates_url":"https://opencorporates.com/companies/us_ma/000508215"}}},{"officer":{"id":102017583,"uid":null,"name":"DANIEL
        V. SWARTZ","jurisdiction_code":"us_ma","position":"treasurer","retrieved_at":"2015-04-26T14:56:36+00:00","opencorporates_url":"https://opencorporates.com/officers/102017583","start_date":null,"end_date":null,"occupation":null,"current_status":null,"inactive":true,"company":{"name":"KSA
        COMMUNICATIONS CORPORATION","jurisdiction_code":"us_ma","company_number":"000508224","opencorporates_url":"https://opencorporates.com/companies/us_ma/000508224"}}},{"officer":{"id":102017637,"uid":null,"name":"ALBERT
        FRIZZELL","jurisdiction_code":"us_ma","position":"director","retrieved_at":"2015-04-26T14:56:37+00:00","opencorporates_url":"https://opencorporates.com/officers/102017637","start_date":null,"end_date":null,"occupation":null,"current_status":null,"inactive":null,"company":{"name":"BEDFORD
        AUTO PARTS, INC.","jurisdiction_code":"us_ma","company_number":"000508306","opencorporates_url":"https://opencorporates.com/companies/us_ma/000508306"}}},{"officer":{"id":102017619,"uid":null,"name":"RUTH
        L BROOKS","jurisdiction_code":"us_ma","position":"director","retrieved_at":"2015-04-26T14:56:37+00:00","opencorporates_url":"https://opencorporates.com/officers/102017619","start_date":null,"end_date":null,"occupation":null,"current_status":null,"inactive":null,"company":{"name":"BROOKS
        MACMANNIS FLORIST AND GREENHOUSE, INC.","jurisdiction_code":"us_ma","company_number":"000508273","opencorporates_url":"https://opencorporates.com/companies/us_ma/000508273"}}},{"officer":{"id":102017655,"uid":null,"name":"BRUCE
        E. NELSON","jurisdiction_code":"us_ma","position":"president","retrieved_at":"2015-04-26T14:56:37+00:00","opencorporates_url":"https://opencorporates.com/officers/102017655","start_date":null,"end_date":null,"occupation":null,"current_status":null,"inactive":true,"company":{"name":"PUERTO
        RICO MANAGEMENT, INC.","jurisdiction_code":"us_ma","company_number":"000508340","opencorporates_url":"https://opencorporates.com/companies/us_ma/000508340"}}},{"officer":{"id":102017664,"uid":null,"name":"NEIL
        J. COLVIN","jurisdiction_code":"us_ma","position":"treasurer","retrieved_at":"2015-04-26T14:56:37+00:00","opencorporates_url":"https://opencorporates.com/officers/102017664","start_date":null,"end_date":null,"occupation":null,"current_status":null,"inactive":true,"company":{"name":"SIBO''S
        MAGIC PUBLISHING, INC.","jurisdiction_code":"us_ma","company_number":"000508372","opencorporates_url":"https://opencorporates.com/companies/us_ma/000508372"}}},{"officer":{"id":102017628,"uid":null,"name":"ROY
        S. MIER","jurisdiction_code":"us_ma","position":"president","retrieved_at":"2015-04-26T14:56:37+00:00","opencorporates_url":"https://opencorporates.com/officers/102017628","start_date":null,"end_date":null,"occupation":null,"current_status":null,"inactive":true,"company":{"name":"MARINA
        COVE, INC.","jurisdiction_code":"us_ma","company_number":"000508303","opencorporates_url":"https://opencorporates.com/companies/us_ma/000508303"}}}]}}'
    http_version: 
  recorded_at: Mon, 11 Jan 2016 02:08:14 GMT
- request:
    method: get
    uri: https://api.openoil.net/concession/search
    body:
      encoding: US-ASCII
      string: ''
    headers:
      User-Agent:
      - Faraday v0.9.2
  response:
    status:
      code: 403
      message: 
    headers:
      date:
      - Mon, 11 Jan 2016 02:08:14 GMT
      content-type:
      - text/html; charset=utf-8
      transfer-encoding:
      - chunked
      connection:
      - close
      server:
      - gunicorn/19.3.0
      x-frame-options:
      - SAMEORIGIN
    body:
      encoding: ASCII-8BIT
      string: ''
    http_version: 
  recorded_at: Mon, 11 Jan 2016 02:08:14 GMT
recorded_with: VCR 3.0.1
